<?xml version="1.0" encoding="UTF-8" standalone="no"?>
<!-- Created with Inkscape (http://www.inkscape.org/) -->

<svg
   width="64"
   height="64"
   viewBox="0 0 16.933333 16.933333"
   version="1.1"
   id="svg1"
   xmlns:xlink="http://www.w3.org/1999/xlink"
   xmlns="http://www.w3.org/2000/svg"
   xmlns:svg="http://www.w3.org/2000/svg">
  <defs
     id="defs1">
    <clipPath
       clipPathUnits="userSpaceOnUse"
       id="clipPath1290">
      <path
         style="fill:#000000;stroke-width:0.317022"
         d="M 46.847804,84.681174 C 60.605089,82.06982 71.051549,71.525164 73.388364,57.891127 76.518594,39.627967 64.062428,22.493091 45.704483,19.808805 42.299934,19.310994 36.518225,19.59319 33.163302,20.420921 c -3.565274,0.879627 -7.321095,2.536313 -10.411026,4.592284 -3.365167,2.239105 -7.802456,6.878955 -9.84414,10.293524 -1.639736,2.742335 -3.4898391,7.284313 -3.8308201,9.404626 -0.197049,1.225289 -0.178744,1.209034 0.542388,-0.481622 1.5015221,-3.520252 2.9096541,-5.568833 5.7704491,-8.394978 3.228901,-3.189793 5.408679,-4.611865 9.037483,-5.895998 13.001028,-4.600696 27.173944,2.124358 31.801068,15.089617 3.162802,8.862203 1.08705,18.613906 -5.457554,25.639112 -2.924109,3.138841 -7.654223,5.861792 -12.218485,7.033722 -3.145203,0.80757 -8.691866,0.74685 -11.975057,-0.131084 -5.51088,-1.473633 -11.165696,-5.437362 -14.165072,-9.928963 -1.533293,-2.296124 -1.66818,-2.135794 -0.279879,0.332671 4.637739,8.24612 11.908289,13.870684 21.022903,16.2635 3.241515,0.850986 10.335794,1.080947 13.692244,0.443842 z"
         id="path1292" />
    </clipPath>
    <radialGradient
       xlink:href="#linearGradient15175"
       id="radialGradient15181"
       cx="38.154884"
       cy="47.460991"
       fx="38.154884"
       fy="47.460991"
       r="1.7340181"
       gradientTransform="matrix(0.12931305,-0.02980882,0.03004854,0.13035295,1.3292595,2.391888)"
       gradientUnits="userSpaceOnUse" />
    <linearGradient
       id="linearGradient15175">
      <stop
         style="stop-color:#00f5fb;stop-opacity:1;"
         offset="0"
         id="stop15171" />
      <stop
         style="stop-color:#00f5fb;stop-opacity:0;"
         offset="1"
         id="stop15173" />
    </linearGradient>
    <radialGradient
       xlink:href="#linearGradient15175"
       id="radialGradient15181-7"
       cx="38.154884"
       cy="47.460991"
       fx="38.154884"
       fy="47.460991"
       r="1.7340181"
       gradientTransform="matrix(0.12931305,-0.02980882,0.03004854,0.13035295,-2.8599531,4.5982604)"
       gradientUnits="userSpaceOnUse" />
    <radialGradient
       xlink:href="#linearGradient15175"
       id="radialGradient15181-7-15"
       cx="38.154884"
       cy="47.460991"
       fx="38.154884"
       fy="47.460991"
       r="1.7340181"
       gradientTransform="matrix(0.12931305,-0.02980882,0.03004854,0.13035295,-3.7879468,6.2786668)"
       gradientUnits="userSpaceOnUse" />
    <radialGradient
       xlink:href="#linearGradient15175"
       id="radialGradient15181-7-2"
       cx="38.154884"
       cy="47.460991"
       fx="38.154884"
       fy="47.460991"
       r="1.7340181"
       gradientTransform="matrix(0.12931305,-0.02980882,0.03004854,0.13035295,-2.112128,6.7352681)"
       gradientUnits="userSpaceOnUse" />
    <radialGradient
       xlink:href="#linearGradient15175"
       id="radialGradient15181-7-9"
       cx="38.154884"
       cy="47.460991"
       fx="38.154884"
       fy="47.460991"
       r="1.7340181"
       gradientTransform="matrix(0.12931305,-0.02980882,0.03004854,0.13035295,2.5123479,3.6221433)"
       gradientUnits="userSpaceOnUse" />
    <radialGradient
       xlink:href="#linearGradient15175"
       id="radialGradient15181-7-97"
       cx="38.154884"
       cy="47.460991"
       fx="38.154884"
       fy="47.460991"
       r="1.7340181"
       gradientTransform="matrix(0.12931305,-0.02980882,0.03004854,0.13035295,3.9461939,5.5468552)"
       gradientUnits="userSpaceOnUse" />
    <radialGradient
       xlink:href="#linearGradient15175"
       id="radialGradient15181-7-29"
       cx="38.154884"
       cy="47.460991"
       fx="38.154884"
       fy="47.460991"
       r="1.7340181"
       gradientTransform="matrix(0.12931305,-0.02980882,0.03004854,0.13035295,3.7830255,0.43983675)"
       gradientUnits="userSpaceOnUse" />
    <radialGradient
       xlink:href="#linearGradient15175"
       id="radialGradient15181-7-5"
       cx="38.154884"
       cy="47.460991"
       fx="38.154884"
       fy="47.460991"
       r="1.7340181"
       gradientTransform="matrix(0.12931305,-0.02980882,0.03004854,0.13035295,2.0083094,1.0544655)"
       gradientUnits="userSpaceOnUse" />
    <radialGradient
       xlink:href="#linearGradient15175"
       id="radialGradient15181-7-1"
       cx="38.154884"
       cy="47.460991"
       fx="38.154884"
       fy="47.460991"
       r="1.7340181"
       gradientTransform="matrix(0.12931305,-0.02980882,0.03004854,0.13035295,3.2180695,-1.429149)"
       gradientUnits="userSpaceOnUse" />
  </defs>
  <g
     id="layer1">
    <path
       style="display:inline;fill:#00008c;fill-opacity:1;stroke-width:0.0628776"
       d="M 7.0910153,15.168181 C 6.0316736,14.98889 4.8544111,14.469402 4.0298352,13.817378 2.1422946,12.324829 1.1816189,9.8310324 1.5924743,7.4902905 1.6916176,6.9254493 1.9905601,5.9914462 1.9983184,6.22229 c 0.00257,0.076594 0.061266,0.1695483 0.1304357,0.2065646 0.09074,0.048562 0.1260424,0.1323381 0.1267892,0.3008809 0.00133,0.3033385 0.2411729,0.7302543 0.4250887,0.7566919 0.1707862,0.02455 0.1779994,-0.072341 0.021841,-0.2933353 C 2.5596031,6.9909074 2.46779,6.6174872 2.5609482,6.6174872 c 0.035706,0 0.092038,0.09822 0.1251847,0.218267 0.033144,0.1200468 0.125091,0.3093041 0.2043204,0.4205715 0.079229,0.1112679 0.1385331,0.2690154 0.1317847,0.3505505 -0.019693,0.2379712 0.1546272,0.4366265 0.4479586,0.5104883 0.1468031,0.036966 0.329459,0.050854 0.4059012,0.030864 0.09985,-0.026112 0.1389869,-0.00852 0.1389869,0.062455 0,0.063396 0.079982,0.1138053 0.2232048,0.1406736 0.1542195,0.028932 0.2829865,0.116265 0.4166335,0.2825702 0.159586,0.1985834 0.2387982,0.2440123 0.4527299,0.2596448 0.2357626,0.017224 0.2612298,0.035919 0.2805548,0.2059412 0.015912,0.1400151 -0.018654,0.2190001 -0.1375887,0.3143871 -0.1161116,0.09312 -0.1699605,0.211971 -0.2001685,0.441782 -0.039417,0.2998686 -0.029434,0.3293236 0.2161861,0.6377786 0.1416303,0.177864 0.2575107,0.368855 0.2575107,0.424423 0,0.05557 0.035871,0.101034 0.07972,0.101034 0.043846,0 0.1853211,0.07176 0.3143882,0.159462 l 0.2346674,0.15946 v 0.55992 c 0,0.330057 0.027637,0.577 0.067312,0.601524 0.041479,0.02564 0.05129,0.136442 0.025559,0.288729 -0.029902,0.177004 -0.013319,0.290514 0.058438,0.400038 0.055103,0.0841 0.1001925,0.283271 0.1001925,0.442598 0,0.348108 0.2195528,0.759278 0.5331598,0.998477 0.3627894,0.276713 0.7530831,0.177759 0.4733431,-0.120009 -0.1079924,-0.114953 -0.1291015,-0.190044 -0.095908,-0.341173 0.036316,-0.165343 0.024364,-0.193779 -0.081464,-0.193779 -0.1579424,0 -0.2207472,-0.156311 -0.1023015,-0.254611 0.1174856,-0.0975 0.1157124,-0.185532 -0.00375,-0.185532 -0.1909119,0 -0.085707,-0.09929 0.2203902,-0.208011 0.1956957,-0.06951 0.3555019,-0.176145 0.4225812,-0.281991 0.059328,-0.09362 0.1899644,-0.274718 0.2902958,-0.402447 0.1505364,-0.191642 0.1753645,-0.269846 0.1420506,-0.447422 -0.058875,-0.313824 0.00336,-0.420702 0.2448725,-0.420702 0.3339912,0 0.4665515,-0.16003 0.5133332,-0.619703 0.028159,-0.276728 0.083401,-0.450765 0.1796083,-0.565899 0.1865929,-0.223295 0.2561309,-0.449215 0.1382693,-0.449215 -0.04907,0 -0.1780511,-0.08488 -0.2866136,-0.1886326 -0.1575531,-0.150566 -0.2527094,-0.188632 -0.4715256,-0.188632 -0.4166695,0 -0.6701698,-0.108238 -0.6701698,-0.286142 0,-0.08145 -0.03284,-0.220154 -0.072967,-0.308237 C 7.7189728,9.0382558 7.6599553,9.0068348 7.4767996,9.0068348 c -0.1863765,0 -0.2480986,-0.034259 -0.3390212,-0.18818 C 7.0194843,8.6184002 6.7816821,8.4486609 6.7816821,8.5644801 c 0,0.099675 -0.4386323,0.079312 -0.4775753,-0.022171 C 6.2856871,8.4943158 6.1821935,8.4373633 6.0741153,8.4157473 5.9111829,8.3831606 5.8437942,8.4092168 5.6796963,8.56827 5.5022711,8.7402368 5.4546847,8.7557607 5.2200071,8.7182351 l -0.261761,-0.04186 v -0.306351 c 0,-0.2790215 -0.013084,-0.3063517 -0.1467141,-0.3063517 -0.2028917,0 -0.2274956,-0.042033 -0.1479577,-0.2527534 C 4.7610913,7.5525669 4.6902897,7.5245677 4.4140806,7.7122557 3.92518,8.0444718 3.6007462,7.8289054 3.827474,7.322492 3.9779721,6.9863434 4.3168948,6.8061202 4.7985469,6.8061202 c 0.3043346,0 0.3483316,0.015605 0.3483316,0.1235429 0,0.108377 0.1638082,0.2537226 0.2859526,0.2537226 0.023489,0 0.029988,-0.086652 0.014444,-0.1925611 C 5.4232934,6.8274228 5.4572505,6.7655332 5.671528,6.5821203 5.8104111,6.4632414 5.9472443,6.3659769 5.9756026,6.3659769 c 0.028356,0 0.051556,-0.041457 0.051556,-0.092129 0,-0.1306394 0.3441596,-0.5061393 0.6174535,-0.6736811 0.1272674,-0.07802 0.2839576,-0.2076947 0.3482005,-0.2881655 0.068741,-0.086102 0.1698324,-0.138687 0.2456661,-0.1277851 0.070875,0.010189 0.140921,-0.016845 0.155663,-0.060073 0.014741,-0.043228 -0.017998,-0.078598 -0.072748,-0.078598 -0.054759,0 -0.099556,-0.029183 -0.099556,-0.064851 0,-0.1002756 0.1886082,-0.1489567 0.2683118,-0.069254 0.087996,0.087996 0.3604638,0.094307 0.3604638,0.00835 0,-0.034582 0.028293,-0.062877 0.062875,-0.062877 0.090665,0 0.077545,0.1727763 -0.015717,0.206972 -0.1222835,0.044838 0.019825,0.1616834 0.2534753,0.2084131 0.260563,0.052111 0.281512,-0.1070018 0.029473,-0.2238671 C 8.0082627,4.9684704 8.0081799,4.9681165 8.1492776,4.9146131 8.3260481,4.8475838 8.3347338,4.633938 8.1649944,4.5279352 8.0867523,4.4790725 8.0392394,4.3813029 8.0392394,4.2691649 8.0392394,4.1218113 8.0191634,4.097368 7.9292028,4.1351818 7.8686868,4.1606198 7.7589221,4.1945878 7.6852889,4.2106648 7.571413,4.2355281 7.5558804,4.2165078 7.5813297,4.0833772 7.6083655,3.9419433 7.586251,3.9226288 7.3514882,3.8829719 7.0280183,3.8283224 6.9074425,3.9164905 6.9074425,4.2076705 c 0,0.1807647 -0.029106,0.2257906 -0.1799663,0.2783801 -0.098981,0.034505 -0.2115539,0.1320655 -0.2501617,0.2168006 -0.09582,0.210302 -0.1986484,0.1938828 -0.1986484,-0.03172 0,-0.1628137 -0.027418,-0.1909276 -0.2217753,-0.2273889 -0.2146519,-0.040269 -0.3858645,-0.22295 -0.315563,-0.3367 0.045784,-0.074082 0.5321811,-0.3545669 0.7102516,-0.4095739 0.1051286,-0.032475 0.1414749,-0.018382 0.1414749,0.054851 0,0.054204 0.04244,0.098554 0.094317,0.098554 0.051876,0 0.094317,-0.028295 0.094317,-0.062878 0,-0.034582 0.041557,-0.062878 0.092343,-0.062878 0.056251,0 0.078197,-0.036865 0.056149,-0.094316 -0.020537,-0.053522 -0.00141,-0.094317 0.044182,-0.094317 0.044205,0 0.1250433,-0.038614 0.1796397,-0.08581 0.1513831,-0.1308602 0.5487416,-0.1737858 0.6359544,-0.0687 0.058735,0.070769 0.028958,0.1087824 -0.1533,0.1956934 -0.1244059,0.059325 -0.2261926,0.1253303 -0.2261926,0.1466786 0,0.021349 0.1411451,0.067728 0.3136554,0.1030664 0.2807828,0.057517 0.3174721,0.052229 0.3500642,-0.050461 0.02149,-0.067711 0.096324,-0.1147122 0.1826379,-0.1147122 0.1668742,0 0.2606104,-0.1605777 0.1242755,-0.2128943 -0.049689,-0.019068 -0.090347,-0.088861 -0.090347,-0.1550949 0,-0.1735399 -0.60825,-0.4144833 -0.8923176,-0.3534697 -0.3204351,0.068825 -0.4281118,0.1465626 -0.4281118,0.3090802 0,0.1181386 -0.026114,0.1422671 -0.125755,0.1162094 C 6.6915571,3.3260597 6.684761,3.2381845 6.8228723,3.0855748 6.9222696,2.9757419 6.9138143,2.9705879 6.6342391,2.9705879 c -0.2182546,0 -0.2926939,0.023987 -0.2926939,0.094316 0,0.051874 0.028294,0.094317 0.062875,0.094317 0.034581,0 0.062875,0.042442 0.062875,0.094316 0,0.058686 -0.059384,0.094316 -0.1571941,0.094316 -0.086457,0 -0.1571941,0.028295 -0.1571941,0.062878 0,0.034582 -0.099032,0.062878 -0.2200716,0.062878 -0.1781532,0 -0.2200715,-0.023953 -0.2200715,-0.1257552 0,-0.096287 0.041917,-0.1257554 0.1788875,-0.1257554 0.2140145,0 0.4502848,-0.2137753 0.3000063,-0.2714427 -0.050837,-0.019508 -0.1262613,0.00529 -0.1676071,0.055109 C 5.9147597,3.1374511 5.6655777,3.1173951 5.5870091,2.9705879 5.5021993,2.8121202 5.204409,2.8037314 4.9522148,2.9527057 4.7263228,3.0861436 4.7191816,3.1592204 4.9320376,3.1592204 c 0.1026015,0 0.1523697,0.028951 0.1351116,0.078597 -0.029786,0.085683 -0.1243574,0.086731 -0.5385475,0.00597 L 4.2561615,3.1906608 4.6959164,2.9272801 C 5.7019342,2.3247507 6.6422459,2.0412556 7.8247797,1.9839569 9.0822141,1.9230289 10.115318,2.1415923 11.18312,2.6944465 c 0.613785,0.3177872 1.32043,0.8240347 1.32043,0.9459692 0,0.045659 -0.09558,0.1229522 -0.212396,0.1717616 -0.116818,0.04881 -0.231861,0.1202397 -0.255652,0.1587338 -0.05666,0.091676 0.319776,0.4672005 0.411504,0.4105094 0.06576,-0.040639 0.179154,0.069939 0.181335,0.1768279 5.18e-4,0.025937 -0.110196,0.047158 -0.246056,0.047158 -0.229248,0 -0.366064,0.075655 -0.490405,0.2711766 -0.0267,0.041985 -0.13343,0.1048211 -0.237178,0.1396362 -0.182619,0.061281 -0.31538,0.3437183 -0.161568,0.3437183 0.03699,0 0.06725,0.039173 0.06725,0.087051 0,0.063341 -0.08687,0.085741 -0.318932,0.08224 -0.365807,-0.00552 -0.45575,0.077284 -0.396653,0.3651693 0.05696,0.2774568 0.0655,0.2831514 0.420629,0.2806535 0.317094,-0.00223 0.331464,-0.010295 0.504236,-0.2829491 0.123376,-0.1947022 0.220622,-0.2806535 0.317532,-0.2806535 0.07683,0 0.16952,-0.029829 0.205977,-0.066286 0.04646,-0.046462 0.111336,-0.02804 0.216928,0.0616 0.08285,0.070337 0.221379,0.1841091 0.307836,0.2528262 l 0.157193,0.1249404 -0.141473,0.0021 c -0.146171,0.00216 -0.189479,0.090757 -0.07804,0.1596336 0.117291,0.072489 0.299686,-0.034507 0.330107,-0.1936485 0.02394,-0.1252498 -0.0066,-0.176837 -0.14839,-0.2501272 -0.0982,-0.050783 -0.208681,-0.1486303 -0.245506,-0.2174378 -0.0571,-0.1066936 -0.04724,-0.1251043 0.06703,-0.1251043 0.204244,0 0.499219,0.2382642 0.499219,0.4032409 0,0.1308895 0.170768,0.3512903 0.272182,0.3512903 0.02322,0 0.04221,-0.050931 0.04221,-0.1131796 0,-0.116625 0.112351,-0.2640859 0.201208,-0.2640859 0.02767,0 0.05031,0.067273 0.05031,0.1494949 0,0.1888099 0.161888,0.3263517 0.354421,0.3011214 0.1486,-0.019471 0.180069,0.023714 0.301636,0.4139507 0.04131,0.1326221 0.02594,0.1414744 -0.245661,0.1414744 -0.194015,0 -0.347665,-0.042831 -0.465089,-0.1296463 -0.196669,-0.145403 -0.511205,-0.1153316 -0.511205,0.048874 0,0.065549 -0.03349,0.080064 -0.110036,0.047693 -0.06051,-0.025595 -0.230282,-0.075833 -0.377257,-0.1116393 -0.245937,-0.059916 -0.26723,-0.081319 -0.26723,-0.268619 v -0.203513 l -0.392986,0.033283 c -0.216142,0.018306 -0.419864,0.058066 -0.452718,0.088354 -0.03285,0.030289 -0.179109,0.05507 -0.325012,0.05507 -0.384417,0 -0.651836,0.1697037 -0.652337,0.4139723 -3.1e-4,0.1640611 -0.05362,0.2305548 -0.346224,0.432081 -0.3587175,0.2470575 -0.4347235,0.4179693 -0.235791,0.5302133 0.08813,0.049729 0.09439,0.077884 0.03144,0.1414553 -0.04323,0.043653 -0.07731,0.2222584 -0.07574,0.3969011 0.0026,0.2898303 0.0293,0.3465579 0.306001,0.6502496 l 0.303146,0.3327172 0.418859,-0.04292 c 0.230373,-0.023602 0.433882,-0.067218 0.452242,-0.096926 0.05438,-0.087985 0.31868,-0.061566 0.403226,0.040306 0.04305,0.051878 0.17769,0.094317 0.299196,0.094317 h 0.220919 l -0.0385,0.280881 c -0.03412,0.248905 -0.01036,0.329386 0.208696,0.7069756 l 0.247193,0.426095 -0.122924,0.208343 c -0.146853,0.248897 -0.157846,0.471164 -0.02861,0.578421 0.05672,0.04707 0.09432,0.184624 0.09432,0.345047 0,0.171561 0.04489,0.323827 0.125755,0.426642 0.07275,0.09248 0.125755,0.255079 0.125755,0.385745 0,0.158858 0.02798,0.225873 0.09432,0.225873 0.171109,0 0.0998,0.10383 -0.397843,0.579274 -1.006976,0.962061 -2.15298,1.552843 -3.4514555,1.779277 -0.5613542,0.09789 -1.7295693,0.113727 -2.223459,0.03014 z m 0.1308239,-9.71764 c 0,-0.053915 -0.028294,-0.08054 -0.062875,-0.059167 -0.034581,0.021373 -0.062875,0.065486 -0.062875,0.098027 0,0.032541 0.028294,0.059167 0.062875,0.059167 0.034581,0 0.062875,-0.044112 0.062875,-0.098027 z M 7.5995642,5.422414 C 7.7770238,5.2685042 7.7295834,5.1943557 7.5266278,5.3084204 c -0.081179,0.045625 -0.157505,0.088145 -0.1696137,0.094489 -0.023583,0.012359 0.048697,0.1456579 0.078983,0.1456579 0.00996,0 0.083563,-0.056769 0.1635636,-0.1261538 z M 11.82347,4.8360841 C 11.84713,4.7989781 11.81387,4.7318076 11.74969,4.6868164 11.68546,4.6418254 11.600246,4.5060696 11.560335,4.3851375 11.520425,4.2642051 11.450986,4.1652607 11.406028,4.1652607 c -0.11212,0 -0.242848,0.1683561 -0.193158,0.2487563 0.02302,0.037244 -0.0139,0.065632 -0.08534,0.065632 -0.154923,0 -0.347212,0.2511134 -0.259474,0.3388515 0.08082,0.080821 0.378758,-0.078561 0.435971,-0.2332239 0.03906,-0.1055874 0.05104,-0.1071888 0.126027,-0.01684 0.06991,0.08423 0.06691,0.099844 -0.01915,0.099844 -0.06453,0 -0.102015,0.053133 -0.102015,0.1445681 0,0.1299266 0.02388,0.1418405 0.23579,0.1176341 0.129685,-0.014814 0.255144,-0.057294 0.278796,-0.0944 z M 5.0211236,3.4107296 c 0,-0.034582 0.083215,-0.062878 0.1849219,-0.062878 0.1017072,0 0.2024089,0.028295 0.2237821,0.062878 0.023122,0.03742 -0.051743,0.062877 -0.1849219,0.062877 -0.1230803,0 -0.2237821,-0.028295 -0.2237821,-0.062877 z"
       id="path16870" />
    <path
       style="display:inline;fill:#000071;fill-opacity:1;stroke-width:0.304226"
       d="M 35.380945,84.746087 C 30.255438,83.878611 24.559389,81.365126 20.569771,78.210383 11.437122,70.988853 6.789002,58.922902 8.776881,47.597489 c 0.479693,-2.73292 1.926092,-7.251987 1.963628,-6.135076 0.01246,0.370593 0.296448,0.82034 0.631098,0.999439 0.439039,0.234967 0.609845,0.640303 0.613457,1.455778 0.0065,1.467669 1.166887,3.533252 2.056744,3.661168 0.826329,0.118784 0.861229,-0.350015 0.10566,-1.41927 -0.69126,-0.978247 -1.135489,-2.784998 -0.684751,-2.784998 0.172754,0 0.445315,0.475227 0.605691,1.056059 0.160375,0.580833 0.605236,1.496533 0.98858,2.034888 0.383343,0.538357 0.670275,1.3016 0.637625,1.696098 -0.09529,1.151397 0.748146,2.112568 2.167397,2.46994 0.71029,0.178855 1.594048,0.246052 1.963908,0.149333 0.483111,-0.126337 0.672471,-0.04125 0.672471,0.302181 0,0.306736 0.386984,0.550634 1.07995,0.680633 0.746174,0.139983 1.369199,0.562535 2.015835,1.367186 0.772137,0.960822 1.155399,1.180626 2.190481,1.256259 1.140712,0.08336 1.263931,0.173801 1.357434,0.996426 0.077,0.677444 -0.09025,1.059607 -0.665709,1.52113 -0.561792,0.450561 -0.822335,1.025595 -0.968491,2.137511 -0.190711,1.450881 -0.142405,1.59339 1.045991,3.085814 0.685264,0.860576 1.245936,1.784663 1.245936,2.053526 0,0.268863 0.173573,0.488843 0.385717,0.488843 0.212146,0 0.896654,0.347188 1.521131,0.771532 l 1.135412,0.771532 v 2.709113 c 0,1.596946 0.133706,2.791749 0.325692,2.910403 0.200703,0.124043 0.248169,0.660152 0.123682,1.396979 -0.14469,0.856415 -0.06445,1.405624 0.28276,1.935544 0.266624,0.40692 0.484771,1.370575 0.484771,2.14146 0,1.68428 1.062283,3.673676 2.579632,4.831013 1.755318,1.338847 3.643708,0.860071 2.290218,-0.580652 -0.522508,-0.556184 -0.624643,-0.919505 -0.464039,-1.650722 0.175706,-0.799996 0.11787,-0.937576 -0.394152,-0.937576 -0.764185,0 -1.06806,-0.756294 -0.494976,-1.231911 0.568443,-0.471767 0.559864,-0.897671 -0.01808,-0.897671 -0.923705,0 -0.414684,-0.480431 1.066334,-1.006444 0.946849,-0.336289 1.720054,-0.85225 2.044612,-1.36437 0.287067,-0.452959 0.919118,-1.329197 1.40456,-1.947198 0.728354,-0.927242 0.848484,-1.305617 0.687299,-2.1648 -0.284853,-1.518399 0.01612,-2.035519 1.184787,-2.035519 1.615976,0 2.257357,-0.774289 2.483702,-2.998361 0.136259,-1.338915 0.403519,-2.180982 0.869012,-2.738036 0.902812,-1.080391 1.239269,-2.173482 0.669002,-2.173482 -0.237444,0 -0.861482,-0.410705 -1.386747,-0.912678 -0.762302,-0.728497 -1.222703,-0.912679 -2.281422,-0.912679 -2.016006,0 -3.242539,-0.523692 -3.242539,-1.384463 0,-0.394069 -0.158876,-1.065186 -0.353061,-1.491371 -0.283791,-0.622853 -0.569356,-0.774879 -1.455536,-0.774879 -0.901759,0 -1.200397,-0.165764 -1.640315,-0.910488 -0.572351,-0.96891 -1.722932,-1.790175 -1.722932,-1.229797 0,0.482266 -2.122272,0.383741 -2.310692,-0.107273 -0.08911,-0.232209 -0.589862,-0.507769 -1.112789,-0.612355 -0.78833,-0.157665 -1.114382,-0.03158 -1.908351,0.737964 -0.858449,0.832043 -1.088691,0.907154 -2.224151,0.725588 l -1.266575,-0.202536 v -1.482246 c 0,-1.350013 -0.06332,-1.482248 -0.70986,-1.482248 -0.981665,0 -1.100712,-0.203369 -0.715875,-1.222918 0.471824,-1.250006 0.129252,-1.385477 -1.207148,-0.47737 -2.365487,1.60739 -3.935226,0.564396 -2.838228,-1.885827 0.728169,-1.626417 2.368006,-2.498406 4.698426,-2.498406 1.472487,0 1.685364,0.0755 1.685364,0.597748 0,0.52437 0.792567,1.227608 1.383547,1.227608 0.113653,0 0.145109,-0.419259 0.0699,-0.931685 -0.116036,-0.790601 0.04827,-1.090047 1.085023,-1.977469 0.671969,-0.575182 1.334023,-1.045785 1.47123,-1.045785 0.137206,0 0.249465,-0.200589 0.249465,-0.445754 0,-0.632083 1.665176,-2.448897 2.987478,-3.259529 0.615766,-0.377493 1.373894,-1.004907 1.684728,-1.394256 0.33259,-0.416598 0.821715,-0.671021 1.188625,-0.618274 0.342911,0.0493 0.681831,-0.0815 0.75316,-0.290653 0.07133,-0.209155 -0.08707,-0.380283 -0.352005,-0.380283 -0.264929,0 -0.481689,-0.141197 -0.481689,-0.313774 0,-0.485172 0.912562,-0.72071 1.298199,-0.335074 0.425758,0.425761 1.744061,0.456295 1.744061,0.0404 0,-0.167323 0.136902,-0.304225 0.304226,-0.304225 0.43867,0 0.375178,0.835958 -0.07606,1.00141 -0.591655,0.216941 0.09593,0.782287 1.226412,1.008383 1.260707,0.252142 1.362066,-0.517709 0.142606,-1.083148 -0.83441,-0.3869 -0.834812,-0.388612 -0.152113,-0.647482 0.855286,-0.324314 0.897309,-1.358015 0.07606,-1.870897 -0.378563,-0.236417 -0.608452,-0.709464 -0.608452,-1.252031 0,-0.712954 -0.09713,-0.83122 -0.532396,-0.648262 -0.292817,0.123082 -0.823886,0.287428 -1.180153,0.365216 -0.550974,0.120299 -0.626128,0.02828 -0.502992,-0.615866 0.130814,-0.684312 0.02364,-0.777763 -1.112063,-0.969638 -1.565071,-0.264417 -2.148465,0.162177 -2.148465,1.571017 0,0.874609 -0.140837,1.092462 -0.870745,1.34691 -0.47891,0.166948 -1.023582,0.638984 -1.210382,1.048965 -0.463615,1.017523 -0.961134,0.93808 -0.961134,-0.153471 0,-0.787755 -0.132668,-0.923781 -1.073035,-1.100195 -1.03857,-0.194837 -1.866964,-1.078718 -1.526817,-1.629085 0.221525,-0.358436 2.574898,-1.715531 3.436473,-1.981676 0.508651,-0.157125 0.68451,-0.08894 0.68451,0.265392 0,0.262262 0.205352,0.47684 0.456338,0.47684 0.250987,0 0.456339,-0.136902 0.456339,-0.304226 0,-0.167324 0.201056,-0.304226 0.446791,-0.304226 0.272159,0 0.378347,-0.178364 0.271678,-0.456339 -0.09937,-0.258963 -0.0069,-0.45634 0.213763,-0.45634 0.213882,0 0.605008,-0.186831 0.86917,-0.415182 0.732449,-0.633152 2.655021,-0.840842 3.076992,-0.332399 0.284171,0.342408 0.140093,0.526331 -0.741725,0.94684 -0.601924,0.287038 -1.094408,0.606397 -1.094408,0.709688 0,0.10329 0.682915,0.327694 1.517587,0.498675 1.358534,0.278292 1.536052,0.252703 1.693745,-0.244148 0.103982,-0.327611 0.46605,-0.555022 0.883673,-0.555022 0.807401,0 1.260933,-0.776937 0.601291,-1.030065 -0.240421,-0.09226 -0.437131,-0.429943 -0.437131,-0.750409 0,-0.839653 -2.942949,-2.00543 -4.317378,-1.710223 -1.55039,0.333001 -2.071369,0.709127 -2.071369,1.49545 0,0.5716 -0.126332,0.688343 -0.608452,0.562266 -0.740309,-0.193594 -0.773192,-0.618769 -0.104962,-1.357154 0.480922,-0.531414 0.440013,-0.556351 -0.912678,-0.556351 -1.056,0 -1.416169,0.116058 -1.416169,0.456338 0,0.250987 0.136901,0.45634 0.304226,0.45634 0.167325,0 0.304226,0.205352 0.304226,0.456339 0,0.283945 -0.287324,0.45634 -0.760566,0.45634 -0.41831,0 -0.760564,0.136901 -0.760564,0.304225 0,0.167325 -0.479157,0.304227 -1.064792,0.304227 -0.861974,0 -1.064791,-0.115897 -1.064791,-0.608452 0,-0.465876 0.202817,-0.608453 0.865527,-0.608453 1.035483,0 2.178651,-1.034328 1.451545,-1.313345 -0.245976,-0.09439 -0.610903,0.02559 -0.810949,0.266637 -0.52879,0.637153 -1.734429,0.540114 -2.114576,-0.170196 -0.41034,-0.766728 -1.851166,-0.807316 -3.071377,-0.08652 -1.092955,0.645624 -1.127507,0.999198 -0.09764,0.999198 0.496423,0 0.737222,0.140078 0.653719,0.380283 -0.144119,0.414569 -0.601688,0.419638 -2.605698,0.02887 l -1.318174,-0.257038 2.127705,-1.274337 c 4.867502,-2.91527 9.417096,-4.286929 15.138651,-4.564162 6.083953,-0.294792 11.082507,0.762701 16.248942,3.437623 2.969727,1.537577 6.388747,3.986998 6.388747,4.576964 0,0.220917 -0.462445,0.59489 -1.027652,0.831049 -0.565209,0.23616 -1.121833,0.581766 -1.23694,0.768015 -0.274138,0.443563 1.547197,2.260497 1.991014,1.986203 0.31815,-0.196629 0.866813,0.338393 0.877372,0.855562 0.0025,0.125494 -0.533171,0.22817 -1.190515,0.22817 -1.10919,0 -1.771159,0.366046 -2.372772,1.312057 -0.129184,0.203139 -0.645587,0.507165 -1.14756,0.675614 -0.883581,0.296504 -1.52593,1.663042 -0.781723,1.663042 0.17896,0 0.325385,0.189533 0.325385,0.421185 0,0.306465 -0.420306,0.414846 -1.543121,0.397907 -1.769916,-0.0267 -2.205091,0.373931 -1.919164,1.76683 0.275571,1.342443 0.316864,1.369996 2.035166,1.35791 1.534227,-0.01079 1.603752,-0.04981 2.439693,-1.369017 0.59694,-0.942044 1.067453,-1.35791 1.536342,-1.35791 0.371733,0 0.820202,-0.144322 0.996596,-0.320715 0.224801,-0.224804 0.538687,-0.13567 1.049579,0.298047 0.400876,0.340319 1.07112,0.890791 1.489431,1.223271 l 0.760565,0.60451 -0.684509,0.01016 c -0.707229,0.01046 -0.916773,0.439117 -0.377559,0.772369 0.5675,0.350734 1.449993,-0.166957 1.597183,-0.936946 0.115847,-0.606007 -0.03223,-0.855606 -0.717961,-1.210212 -0.47515,-0.24571 -1.009684,-0.719131 -1.187857,-1.052048 -0.276277,-0.516225 -0.228553,-0.605303 0.324302,-0.605303 0.988211,0 2.415418,1.152814 2.415418,1.951035 0,0.633294 0.826239,1.699678 1.316916,1.699678 0.112318,0 0.204215,-0.246423 0.204215,-0.547606 0,-0.564277 0.543597,-1.27775 0.973523,-1.27775 0.13386,0 0.243381,0.325492 0.243381,0.723314 0,0.913535 0.783276,1.579016 1.714825,1.456942 0.718981,-0.09421 0.871242,0.114739 1.459428,2.002853 0.199894,0.641677 0.125521,0.684508 -1.1886,0.684508 -0.93872,0 -1.682132,-0.207231 -2.250278,-0.627279 -0.951559,-0.703516 -2.47341,-0.558019 -2.47341,0.23647 0,0.31715 -0.162037,0.387383 -0.532396,0.230759 -0.292818,-0.123831 -1.114227,-0.366896 -1.825356,-0.540143 -1.189938,-0.289896 -1.292961,-0.393455 -1.292961,-1.299682 v -0.984687 l -1.901413,0.161039 c -1.045777,0.08857 -2.031469,0.280942 -2.190428,0.42749 -0.158958,0.146548 -0.866597,0.266451 -1.572532,0.266451 -1.859959,0 -3.153836,0.821092 -3.156261,2.002958 -0.0015,0.793791 -0.259422,1.115513 -1.675166,2.090574 -1.73561,1.19536 -2.103355,2.022297 -1.140848,2.565377 0.426422,0.240604 0.456701,0.376836 0.152113,0.684415 -0.209155,0.211209 -0.374068,1.075372 -0.366474,1.920361 0.01259,1.402311 0.141769,1.676781 1.48055,3.14616 l 1.466741,1.609815 2.026602,-0.207631 c 1.11463,-0.114198 2.099285,-0.325233 2.188119,-0.468968 0.263101,-0.42571 1.541897,-0.297892 1.950963,0.195 0.2083,0.250987 0.85973,0.456339 1.44762,0.456339 h 1.068892 l -0.186275,1.359008 c -0.165067,1.204304 -0.05012,1.593697 1.009751,3.420624 l 1.196019,2.061613 -0.594759,1.008046 c -0.710529,1.204255 -0.763719,2.279671 -0.138423,2.798623 0.274419,0.227746 0.45634,0.893283 0.45634,1.669467 0,0.830081 0.217153,1.566805 0.608452,2.06426 0.35198,0.447471 0.608452,1.234177 0.608452,1.866384 0,0.768616 0.135393,1.092863 0.45634,1.092863 0.827895,0 0.482873,0.502368 -1.924916,2.802755 -4.87214,4.654817 -10.416951,7.51325 -16.699468,8.608829 -2.716055,0.473641 -8.36833,0.55025 -10.757958,0.145816 z M 36.01392,37.728393 c 0,-0.260862 -0.136902,-0.389684 -0.304226,-0.286272 -0.167325,0.103412 -0.304226,0.316844 -0.304226,0.474294 0,0.157449 0.136901,0.286271 0.304226,0.286271 0.167324,0 0.304226,-0.213431 0.304226,-0.474293 z m 1.827581,-0.136088 c 0.858617,-0.744675 0.629081,-1.103434 -0.352882,-0.551545 -0.392773,0.220749 -0.762068,0.426479 -0.820656,0.457177 -0.114112,0.0598 0.235614,0.704749 0.382154,0.704749 0.04819,0 0.404307,-0.274671 0.791384,-0.610381 z m 20.436883,-2.83689 c 0.114438,-0.179533 -0.04621,-0.50453 -0.357003,-0.722215 -0.310788,-0.217685 -0.723066,-0.874523 -0.916171,-1.459639 -0.193107,-0.585118 -0.529076,-1.063849 -0.746598,-1.063849 -0.542478,0 -1.174991,0.814572 -0.934571,1.203579 0.111372,0.180201 -0.06722,0.317552 -0.412899,0.317552 -0.749575,0 -1.679945,1.214983 -1.255436,1.639494 0.391045,0.391044 1.832575,-0.380107 2.109397,-1.128427 0.188985,-0.510873 0.246971,-0.518621 0.609769,-0.08148 0.338223,0.407536 0.323733,0.483085 -0.09266,0.483085 -0.312182,0 -0.493588,0.257075 -0.493588,0.699476 0,0.628635 0.115544,0.686279 1.140847,0.569159 0.627467,-0.07168 1.23448,-0.277209 1.34892,-0.456742 z M 25.366007,27.858999 c 0,-0.167324 0.402626,-0.304226 0.894724,-0.304226 0.492098,0 0.979333,0.136902 1.082745,0.304226 0.111895,0.181051 -0.250362,0.304227 -0.894724,0.304227 -0.59551,0 -1.082745,-0.136902 -1.082745,-0.304227 z"
       id="path16870-3"
       clip-path="url(#clipPath1290)"
       transform="matrix(0.20668049,0,0,0.20668049,-0.22153538,-2.3471817)" />
    <ellipse
       style="display:inline;fill:url(#radialGradient15181);fill-opacity:1;stroke:none;stroke-width:0.0882525;stroke-miterlimit:4;stroke-dasharray:none"
       id="path3382"
       cx="7.6893167"
       cy="7.4412165"
       rx="0.35838771"
       ry="0.33194301" />
    <ellipse
       style="display:inline;fill:url(#radialGradient15181-7);fill-opacity:1;stroke:none;stroke-width:0.0882525;stroke-miterlimit:4;stroke-dasharray:none"
       id="path3382-0"
       cx="3.500104"
       cy="9.6475887"
       rx="0.35838771"
       ry="0.33194301" />
    <ellipse
       style="display:inline;fill:url(#radialGradient15181-7-15);fill-opacity:1;stroke:none;stroke-width:0.0882525;stroke-miterlimit:4;stroke-dasharray:none"
       id="path3382-0-7"
       cx="2.5721104"
       cy="11.327995"
       rx="0.35838771"
       ry="0.33194301" />
    <ellipse
       style="display:inline;fill:url(#radialGradient15181-7-2);fill-opacity:1;stroke:none;stroke-width:0.0882525;stroke-miterlimit:4;stroke-dasharray:none"
       id="path3382-0-5"
       cx="4.2479286"
       cy="11.784596"
       rx="0.35838771"
       ry="0.33194301" />
    <ellipse
       style="display:inline;fill:url(#radialGradient15181-7-9);fill-opacity:1;stroke:none;stroke-width:0.0882525;stroke-miterlimit:4;stroke-dasharray:none"
       id="path3382-0-8"
       cx="8.872407"
       cy="8.6714725"
       rx="0.35838771"
       ry="0.33194301" />
    <ellipse
       style="display:inline;fill:url(#radialGradient15181-7-97);fill-opacity:1;stroke:none;stroke-width:0.0882525;stroke-miterlimit:4;stroke-dasharray:none"
       id="path3382-0-1"
       cx="10.306252"
       cy="10.596184"
       rx="0.35838771"
       ry="0.33194301" />
    <ellipse
       style="display:inline;fill:url(#radialGradient15181-7-29);fill-opacity:1;stroke:none;stroke-width:0.0882525;stroke-miterlimit:4;stroke-dasharray:none"
       id="path3382-0-9"
       cx="10.143083"
       cy="5.4891648"
       rx="0.35838771"
       ry="0.33194301" />
    <ellipse
       style="display:inline;fill:url(#radialGradient15181-7-5);fill-opacity:1;stroke:none;stroke-width:0.0882525;stroke-miterlimit:4;stroke-dasharray:none"
       id="path3382-0-6"
       cx="8.3683662"
       cy="6.1037946"
       rx="0.35838771"
       ry="0.33194301" />
    <path
       style="display:inline;fill:none;stroke:#00b6ff;stroke-width:0.0413362;stroke-linecap:butt;stroke-linejoin:miter;stroke-miterlimit:4;stroke-dasharray:none;stroke-opacity:0.445077"
       d="M 3.4929509,9.5879704 C 4.2947849,7.9239738 5.4277364,6.7836204 7.6886924,7.4271432"
       id="path4460" />
    <path
       style="display:inline;fill:none;stroke:#00b6ff;stroke-width:0.0413362;stroke-linecap:butt;stroke-linejoin:miter;stroke-miterlimit:4;stroke-dasharray:none;stroke-opacity:0.445077"
       d="M 4.1782343,11.80622 C 3.9518917,10.202494 5.6248389,7.3945327 7.6886924,7.4271432"
       id="path4460-69" />
    <path
       style="display:inline;fill:none;stroke:#00b6ff;stroke-width:0.0413362;stroke-linecap:butt;stroke-linejoin:miter;stroke-miterlimit:4;stroke-dasharray:none;stroke-opacity:0.445077"
       d="M 3.4929509,9.5879704 C 2.2792654,5.5758657 7.3485113,2.927276 9.6094665,3.5707989"
       id="path4460-5" />
    <path
       style="display:inline;fill:none;stroke:#00b6ff;stroke-width:0.0413362;stroke-linecap:butt;stroke-linejoin:miter;stroke-miterlimit:4;stroke-dasharray:none;stroke-opacity:0.445077"
       d="M 4.1782343,11.80622 C 3.4852838,8.9003903 6.1165453,5.409239 8.377502,6.0527617"
       id="path4460-6" />
    <path
       style="display:inline;fill:none;stroke:#00b6ff;stroke-width:0.0413362;stroke-linecap:butt;stroke-linejoin:miter;stroke-miterlimit:4;stroke-dasharray:none;stroke-opacity:0.445077"
       d="M 4.1782343,11.80622 C 5.3736969,10.465181 7.3829992,8.6378928 8.8641707,8.6416309"
       id="path4460-2" />
    <path
       style="display:inline;fill:none;stroke:#00b6ff;stroke-width:0.0413362;stroke-linecap:butt;stroke-linejoin:miter;stroke-miterlimit:4;stroke-dasharray:none;stroke-opacity:0.445077"
       d="m 2.5520742,11.324708 c 2.009529,-3.3601408 5.8918197,-3.28294 7.7619228,-0.73984"
       id="path4460-2-6" />
    <path
       style="display:inline;fill:none;stroke:#00b6ff;stroke-width:0.0413362;stroke-linecap:butt;stroke-linejoin:miter;stroke-miterlimit:4;stroke-dasharray:none;stroke-opacity:0.445077"
       d="M 7.6886924,7.4271432 C 7.6673122,6.1739841 9.2650116,4.9670372 10.156182,5.4674296"
       id="path4460-2-0" />
    <ellipse
       style="display:inline;fill:url(#radialGradient15181-7-1);fill-opacity:1;stroke:none;stroke-width:0.0882525;stroke-miterlimit:4;stroke-dasharray:none"
       id="path3382-0-3"
       cx="9.578126"
       cy="3.6201792"
       rx="0.35838771"
       ry="0.33194301" />
    <path
       style="display:inline;fill:#1b20f2;fill-opacity:0.763996;stroke:#000072;stroke-width:0.0390577;stroke-linecap:butt;stroke-linejoin:miter;stroke-miterlimit:4;stroke-dasharray:none;stroke-opacity:1"
       d="M 10.009972,7.0003757 9.4178455,8.1731112 10.043512,9.3726674 11.352287,9.3553274 11.871588,8.1649536 11.207587,6.9969415 Z"
       id="path1064" />
    <path
       style="display:inline;fill:#1b20f2;fill-opacity:0.763996;stroke:#000072;stroke-width:0.0390577;stroke-linecap:butt;stroke-linejoin:miter;stroke-miterlimit:4;stroke-dasharray:none;stroke-opacity:1"
       d="m 11.937787,8.1927434 -0.540421,1.220764 0.426048,1.2234906 1.051751,-0.02757 0.618091,-1.2157346 -0.494284,-1.2160712 z"
       id="path1703" />
    <path
       style="display:inline;fill:#1b20f2;fill-opacity:0.763996;stroke:#000072;stroke-width:0.0390577;stroke-linecap:butt;stroke-linejoin:miter;stroke-miterlimit:4;stroke-dasharray:none;stroke-opacity:1"
       d="m 12.999655,8.0827121 -1.060953,0.00404 -0.653569,-1.2020785 0.404621,-1.0689633 0.978891,0.00742 0.724609,1.1363387 z"
       id="path1899" />
    <path
       style="display:inline;fill:#1b20f2;fill-opacity:0.763996;stroke:#000072;stroke-width:0.0390577;stroke-linecap:butt;stroke-linejoin:miter;stroke-miterlimit:4;stroke-dasharray:none;stroke-opacity:1"
       d="m 12.656288,5.6953949 -0.996936,0.011127 -0.692415,-1.0046208 0.195376,-0.9392128 0.798202,-0.029903 0.788026,0.9175397 z"
       id="path2014" />
    <path
       style="display:inline;fill:#1b20f2;fill-opacity:0.763996;stroke:#000072;stroke-width:0.0390577;stroke-linecap:butt;stroke-linejoin:miter;stroke-miterlimit:4;stroke-dasharray:none;stroke-opacity:1"
       d="m 12.850536,10.706571 -0.966629,0.0039 -0.706594,1.098405 0.295167,0.970144 0.853312,0.01376 0.725582,-0.997809 z"
       id="path2474" />
    <path
       style="display:inline;fill:#1b20f2;fill-opacity:0.763996;stroke:#000072;stroke-width:0.0390577;stroke-linecap:butt;stroke-linejoin:miter;stroke-miterlimit:4;stroke-dasharray:none;stroke-opacity:1"
       d="m 11.363684,12.848697 -0.304798,-0.974362 -1.1280355,-0.01229 -0.6428253,0.99886 0.3857683,0.881192 0.9672545,0.02797 z"
       id="path2589" />
    <path
       style="display:inline;fill:#1b20f2;fill-opacity:0.763996;stroke:#000072;stroke-width:0.0390577;stroke-linecap:butt;stroke-linejoin:miter;stroke-miterlimit:4;stroke-dasharray:none;stroke-opacity:1"
       d="M 11.924052,3.642598 11.132908,3.653306 10.40327,2.924781 10.3745,2.1444072 l 0.604991,-0.00835 0.845994,0.6846903 z"
       id="path2129" />
    <path
       style="display:inline;fill:#1b20f2;fill-opacity:0.763996;stroke:#000072;stroke-width:0.0390577;stroke-linecap:butt;stroke-linejoin:miter;stroke-miterlimit:4;stroke-dasharray:none;stroke-opacity:1"
       d="M 10.273129,2.1012888 10.274429,2.777113 9.4901395,2.771823 8.9602152,2.109305 9.0739637,1.6076201 9.5760875,1.5992701 Z"
       id="path2244" />
    <path
       style="display:inline;fill:#1b20f2;fill-opacity:0.763996;stroke:#000072;stroke-width:0.0390577;stroke-linecap:butt;stroke-linejoin:miter;stroke-miterlimit:4;stroke-dasharray:none;stroke-opacity:1"
       d="m 12.31784,12.948722 -0.872873,-0.03056 -0.749259,0.944328 0.08573,0.776508 0.723111,0.01877 0.845449,-0.801401 z"
       id="path2788" />
    <path
       style="display:inline;fill:#1b20f2;fill-opacity:0.763996;stroke:#000072;stroke-width:0.0390577;stroke-linecap:butt;stroke-linejoin:miter;stroke-miterlimit:4;stroke-dasharray:none;stroke-opacity:1"
       d="m 11.408655,14.78713 -0.662279,-0.02311 -0.7744725,0.723432 -0.08677,0.503175 0.4934315,0.06093 0.834102,-0.500039 z"
       id="path2903" />
    <path
       style="display:inline;fill:#1b20f2;fill-opacity:0.763996;stroke:#000072;stroke-width:0.0390577;stroke-linecap:butt;stroke-linejoin:miter;stroke-miterlimit:4;stroke-dasharray:none;stroke-opacity:1"
       d="m 11.322756,15.459361 0.35763,-0.02285 1.009488,-0.883501 c 0.08319,-0.226761 0.231876,-0.418499 0.291186,-0.652181 l -0.540276,-0.01731 -0.930531,0.883335 z"
       id="path3133" />
    <path
       style="display:inline;fill:#1b20f2;fill-opacity:0.763996;stroke:#000072;stroke-width:0.0390577;stroke-linecap:butt;stroke-linejoin:miter;stroke-miterlimit:4;stroke-dasharray:none;stroke-opacity:1"
       d="m 13.924469,11.867804 -0.818667,0.02635 -0.706473,1.010523 0.04404,0.9036 0.596614,0.01955 0.850073,-0.993161 z"
       id="path3018" />
    <path
       style="display:inline;fill:#1b20f2;fill-opacity:0.763996;stroke:#000072;stroke-width:0.0390577;stroke-linecap:butt;stroke-linejoin:miter;stroke-miterlimit:4;stroke-dasharray:none;stroke-opacity:1"
       d="m 14.367808,9.4652224 -0.805217,0.0073 -0.593432,1.1622586 0.225395,1.057928 0.797221,-0.0091 0.594066,-1.032646 z"
       id="path3897" />
    <path
       style="display:inline;fill:#1b20f2;fill-opacity:0.763996;stroke:#000072;stroke-width:0.0390577;stroke-linecap:butt;stroke-linejoin:miter;stroke-miterlimit:4;stroke-dasharray:none;stroke-opacity:1"
       d="m 15.211384,10.694691 -0.530996,0.0013 -0.656118,1.144442 -0.01624,0.901951 0.508464,0.0156 0.632853,-0.928647 z"
       id="path4012" />
    <path
       style="display:inline;fill:#1b20f2;fill-opacity:0.763996;stroke:#000072;stroke-width:0.0390577;stroke-linecap:butt;stroke-linejoin:miter;stroke-miterlimit:4;stroke-dasharray:none;stroke-opacity:1"
       d="m 15.646738,9.4445854 -0.387016,1.1134296 -0.582969,-0.0125 -0.212332,-1.1298376 0.34962,-1.1836818 0.597559,-0.010216 z"
       id="path4226" />
    <path
       style="display:inline;fill:#1b20f2;fill-opacity:0.763996;stroke:#000072;stroke-width:0.0390577;stroke-linecap:butt;stroke-linejoin:miter;stroke-miterlimit:4;stroke-dasharray:none;stroke-opacity:1"
       d="m 14.294036,5.8192046 -0.0299,1.0953472 0.501597,1.1788148 0.632846,-0.00353 0.05301,-1.1787095 -0.501254,-1.0870425 z"
       id="path4536" />
    <path
       style="display:inline;fill:#1b20f2;fill-opacity:0.763996;stroke:#000072;stroke-width:0.0390577;stroke-linecap:butt;stroke-linejoin:miter;stroke-miterlimit:4;stroke-dasharray:none;stroke-opacity:1"
       d="m 13.465125,3.7759266 0.113,0.8549069 0.760596,1.0667867 0.492767,0.0079 -0.211835,-1.159311 -0.622294,-0.7902707 z"
       id="path4731" />
    <path
       style="display:inline;fill:#1b20f2;fill-opacity:0.763996;stroke:#000072;stroke-width:0.0390577;stroke-linecap:butt;stroke-linejoin:miter;stroke-miterlimit:4;stroke-dasharray:none;stroke-opacity:1"
       d="m 12.873617,4.7808521 -0.09676,0.9936388 0.663798,1.0990617 0.73211,-1.843e-4 0.03706,-1.2270853 -0.684088,-0.8839995 z"
       id="path4341" />
    <path
       style="display:inline;fill:#1b20f2;fill-opacity:0.763996;stroke:#000072;stroke-width:0.0390577;stroke-linecap:butt;stroke-linejoin:miter;stroke-miterlimit:4;stroke-dasharray:none;stroke-opacity:1"
       d="m 16.063926,6.9489561 -0.500132,0.044075 -0.06607,1.1713174 0.275517,1.1962119 0.488851,0.0021 c 0.05862,-0.7977825 -0.01369,-1.5756128 -0.198166,-2.413631 z"
       id="path4852" />
    <path
       style="display:inline;fill:#1b20f2;fill-opacity:0.763996;stroke:#000072;stroke-width:0.0390577;stroke-linecap:butt;stroke-linejoin:miter;stroke-miterlimit:4;stroke-dasharray:none;stroke-opacity:1"
       d="m 15.624902,11.948738 -0.36287,-0.04982 -0.683588,1.021853 -0.505116,0.882251 0.33196,0.131024 c 0.518956,-0.585169 0.848467,-1.214026 1.219614,-1.985306 z"
       id="path6578" />
    <path
       style="display:inline;fill:#1b20f2;fill-opacity:0.763996;stroke:#000072;stroke-width:0.0390577;stroke-linecap:butt;stroke-linejoin:miter;stroke-miterlimit:4;stroke-dasharray:none;stroke-opacity:1"
       d="m 16.25933,9.4597774 -0.462515,8.97e-4 -0.417934,1.2128546 -0.06726,1.120273 0.378441,0.0085 c 0.358944,-0.872385 0.492459,-1.680102 0.569272,-2.3425766 z"
       id="path6945" />
    <path
       style="display:inline;fill:#1b20f2;fill-opacity:0.763996;stroke:#000072;stroke-width:0.0390577;stroke-linecap:butt;stroke-linejoin:miter;stroke-miterlimit:4;stroke-dasharray:none;stroke-opacity:1"
       d="m 12.083883,2.1868269 0.387981,0.6448555 0.910113,0.8350779 0.579924,-1.69e-5 L 13.335934,2.871344 12.444836,2.222712 Z"
       id="path7521" />
    <path
       style="display:inline;fill:#1b20f2;fill-opacity:0.763996;stroke:#000072;stroke-width:0.0390577;stroke-linecap:butt;stroke-linejoin:miter;stroke-miterlimit:4;stroke-dasharray:none;stroke-opacity:1"
       d="m 10.984203,2.0395721 -0.347623,-0.4857004 0.579026,-0.00679 0.668496,0.4687209 0.459973,0.7243838 -0.463586,-5.374e-4 z"
       id="path7193" />
  </g>
</svg>
